0.099279383564591,-0.24818686357121
0.14180717392227,-0.31044285423082
0.089324832511341,-0.22032886152724
0.11816469338555,-0.27479071556678
0.062136634960512,-0.21035878889149
0.12294050946341,-0.28044846584059
0.086131815686648,-0.23874750652454
0.14526088277407,-0.31496753720735
0.064522699591621,-0.22603037557536
0.14146603533508,-0.30798939495649
0.1541592221677,-0.32846387897982
0.14836352336276,-0.31969656361957
0.1541592221677,-0.32846387897982
0.1541592221677,-0.32846387897982
0.091435887598135,-0.26262012777351
0.14630502316663,-0.3174676585792
0.03608169220071,-0.15303539510279
0.11503997620236,-0.27535816285516
0.070784726539038,-0.22736299550768
0.14945689587396,-0.32120849735487
0.035298063650094,-0.13353077344615
0.13810094059651,-0.30615780593147
0.037343482689982,-0.1733411181222
0.13686851861778,-0.30341582005947
0.1541592221677,-0.32846387897982
0.131675630889,-0.2904906775216
0.049867081178763,-0.19855495165904
0.15084176230958,-0.32312767365275
0.012903436434565,-0.13850010860409
0.1541592221677,-0.32846387897982
0.1541592221677,-0.32846387897982
0.13735615160457,-0.30614790253816
0.13334761822978,-0.30641799285243
0.15040139522169,-0.32426124666384
0.12996983015814,-0.3062116040838
0.15063870561367,-0.32334592561677
0.087976544609346,-0.24985212745307
0.14449388212191,-0.31600446750714
0.14129299752493,-0.3110676923406
0.12870590130531,-0.29033760789663
0.051392527389377,-0.22396551591095
0.10635073352643,-0.26029347210437
0.11821374421454,-0.30988348386234
0.14397713540935,-0.31390984204993
0.052221331049057,-0.19223189377944
0.14882420243694,-0.32071472174434
0.1120578175859,-0.27443229297289
0.14746550617596,-0.31840859241866
0.060298059061237,-0.22042012593315
0.14097302748113,-0.31394106778691
0.11959901352197,-0.26055995692264
0.035084694473076,-0.14963053124343
0.046347105716484,-0.20596500087377
0.14996686773236,-0.3227984569552
0.021809849646517,-0.13860315700781
0.15218889355128,-0.32528552200906
0.0075322510516233,-0.16419686405759
0.14923303238024,-0.3217203854734
0.094533171953356,-0.25892880825928
0.14417178010075,-0.31375740359624
0.083190050584997,-0.25310937900437
0.13655881616284,-0.30185482617244
0.068898104145922,-0.21393358804755
0.13934968097681,-0.30710326363494
0.14688422553784,-0.31888102570168
0.15126356549301,-0.32374778734457
0.14418431216411,-0.31256449359857
0.055183489611524,-0.17808535024153
0.1541592221677,-0.32846387897982
0.15180308897739,-0.32466643465514
0.12272736791304,-0.28724766398808
0.13333223840696,-0.29786594326052
0.091570132616941,-0.24603219239137
0.14449573926935,-0.31293172889253
0.14418431216411,-0.31256449359857
0.14168830362547,-0.30983280907334
0.10842274553391,-0.2375906976169
0.14225092070998,-0.3095096014452
0.10732604448119,-0.25211518227759
0.1541592221677,-0.32846387897982
0.1541592221677,-0.32846387897982
0.12312805282656,-0.28340683214373
0.085534480743707,-0.23319448318072
0.13151124142765,-0.30086739939769
0.11449234709301,-0.28243872140118
0.13096138262641,-0.30239534497189
0.12609385034212,-0.29436497507312
0.1143694636415,-0.28028937973959
0.064003413320839,-0.20231567350171
0.13403940823059,-0.30162437364758
0.10698737799473,-0.26615076891468
0.11574762488788,-0.27968418630755
0.070703134595775,-0.23793607767826
0.11546406419946,-0.28652059375118
0.061270918437973,-0.18154813401122
0.074817426731487,-0.20417364170892
0.065462726247711,-0.18660637733732
0.080185040851989,-0.26391971853097
0.13035936640234,-0.29945775498403
0.12524235406188,-0.29279171910476
0.15352016655142,-0.32745652430646
0.063323674787495,-0.21400834111993
0.1489507330121,-0.32258172547612
0.10128267944495,-0.26606208335115
0.15310485720374,-0.32799087923981
0.080331405314918,-0.24410767816343
0.14803879172576,-0.32064651164261
0.079765917677855,-0.23869026976494
0.14468886778771,-0.31580923782957
0.10526878159793,-0.26887971451223
0.072895638370847,-0.20270673342056
0.10105632059748,-0.2672831823558
0.067389960448522,-0.19030932758871
0.084745383724166,-0.22708379295222
0.089889761487455,-0.25136524732219
0.12055138378634,-0.28216673986038
0.1349973729171,-0.30204812678804
0.068909487593425,-0.21760312475312
0.14779139892683,-0.32215326235446
0.092501587601576,-0.25118220387003
0.13826105727281,-0.30615541516998
0.074895854594735,-0.21492904568403
0.10348169687638,-0.26812230655649
0.090301437860006,-0.23306416420935
0.13382043689168,-0.30182049002023
0.14220213903889,-0.31879460474275
0.15238595560821,-0.32652569736336
0.081051670399203,-0.23777662364952
0.15342451452843,-0.3279173822489
0.12222066811956,-0.29622567090938
0.099757043584557,-0.2570237996249
0.14293710772655,-0.30731167038028
0.065987314286391,-0.20588369660637
0.12222066811956,-0.29622567090938
0.062230875917738,-0.1856714133832
-0.010471157346876,-0.11902196426391
0.11099753913179,-0.28005816625639
0.056629355780665,-0.20961858169952
0.12452081420905,-0.29032031995562
0.083715957088815,-0.23081671243982
0.15189633219877,-0.32632881693026
0.13776737514797,-0.30998489824602
0.071360447411085,-0.21949477896673
0.1195980211824,-0.28635038612198
0.067383160086681,-0.21468104692531
0.056291540545858,-0.2214617248895
0.15279190719072,-0.32679949499614
0.14662802107759,-0.32131389272438
0.1514577216439,-0.32600502779535
0.050083306176407,-0.1923553037889
0.1284273461664,-0.29951546178723
0.064239536812766,-0.21368882543597
0.053679193151136,-0.17778471308177
0.061059808305625,-0.20960592427358
0.1376299986389,-0.31090778985603
0.062863996577398,-0.21226729438844
0.048887900068661,-0.18032037661628
0.079635385784248,-0.23766718211371
0.055879164527318,-0.18497830422388
0.062708126869868,-0.21236085218229
0.14166438170727,-0.31365399843602
0.086788493292921,-0.23528705802197
0.043527614778591,-0.16965661085769
0.13307598009921,-0.29494993412346
0.045575241713861,-0.16953410933822
0.075697106117939,-0.2231117011465
0.043549401864096,-0.18774257766857
0.063323674787495,-0.21400834111993
0.14158354293679,-0.31064607798378
0.037314699913985,-0.17331781500078
0.14874591669539,-0.32201124978497
0.075964272508146,-0.23823814826456
0.1541592221677,-0.32846387897982
0.066903036482236,-0.21102020617609
0.1541592221677,-0.32846387897982
0.086325021776999,-0.26072120952565
0.14408903571317,-0.31693055122371
0.071026822607309,-0.22143158135028
0.13502779220399,-0.29981340831352
0.11704589326605,-0.27326439515404
0.12269493136054,-0.28127674494047
0.076328660305316,-0.23984355101666
0.11432417749773,-0.26925839334288
0.065236295090061,-0.25204776324881
0.044467769055267,-0.17132582354693
0.13237168295496,-0.29382328936956
0.047655902109725,-0.15938864899094
0.012722633370281,-0.15438876563512
0.12519705886055,-0.29579236859451
0.024790018471447,-0.16365337211346
0.092558258157798,-0.24371867015123
0.06593108244175,-0.21658425337323
0.13140771555476,-0.29447350756272
0.075282669727872,-0.21885169619414
0.14654313975388,-0.31873712477637
0.11438725226289,-0.27238466490923
0.15132929664177,-0.32401761075293
0.064149378498461,-0.21265769983846
0.14977005203851,-0.32580592331418
0.12222066811956,-0.29622567090938
0.1336089199071,-0.29683039629431
0.049166249533005,-0.17958971064783
0.15292250129968,-0.32646546048793
0.040155570528877,-0.2037259129592
0.15165175072947,-0.32666095324064
0.072075003092428,-0.24751364870292
0.13240383835242,-0.30909198050497
0.067650005216274,-0.22428119846158
0.15075452288491,-0.324656906412
0.074588463944383,-0.25304060062042
0.11108129059425,-0.27698420808974
0.038852630539559,-0.19790337031206
0.14262194267667,-0.31578101242337
0.1541592221677,-0.32846387897982
0.045981277771746,-0.17264536027657
0.1541592221677,-0.32846387897982
0.12590964051691,-0.28770985985456
0.098848441256902,-0.23754919120965
0.10986644410668,-0.26073426172061
0.086788493292921,-0.23528705802197
0.087874580780556,-0.22985428339494
0.1541592221677,-0.32846387897982
0.12320649294646,-0.28211912231924
0.075697106117939,-0.2231117011465
0.094595304383218,-0.23698002751613
0.0031417665243829,-0.11777468025985
0.045297946204004,-0.16746461681222
0.1541592221677,-0.32846387897982
0.12216729345103,-0.28842420921641
0.063323674787495,-0.21400834111993
0.15114708055368,-0.32561066042603
0.050301656236701,-0.16920923973267
0.12258898661282,-0.29342712784842
0.13777195378189,-0.31161594891827
0.13598457928237,-0.30920011484671
0.077317658866575,-0.22624132502287
0.1238096325342,-0.29422735108645
0.067159629072383,-0.21669401537856
0.13221158992536,-0.30485876798111
0.070254981058803,-0.21948652590881
0.14515487348966,-0.31866386758649
0.085941322470493,-0.24478925949698
0.14529089121249,-0.31837255539102
0.12222066811956,-0.29622567090938
0.1405143385752,-0.31311040855545
0.038517133941597,-0.17913841572629
0.11512358573004,-0.28359060205387
0.063323674787495,-0.21400834111993
0.062896345520461,-0.19036998838283
0.073921001570725,-0.21460585076047
0.043274037626065,-0.16497668156332
0.073921001570725,-0.21460585076047
0.043742883803551,-0.16860981859835
0.050012748678997,-0.18652849117825
0.048524135136659,-0.17854935425929
0.12585197034453,-0.29627649913682
0.13352808988881,-0.30253839108376
0.1259052130545,-0.29541250157442
0.13483449257807,-0.30725950155193
0.10503983953446,-0.26839113217583
0.10532266336408,-0.25839088937175
0.10575210132089,-0.25361730804951
0.08882466644831,-0.22779873853311
0.092633838719599,-0.23162852067729
0.083744600691055,-0.21846525518093
0.062345367171249,-0.18928466652475
0.11895682865326,-0.28601060103889
0.12952854480038,-0.29445133946914
0.12306489949981,-0.2891234326763
0.15161876462012,-0.32458959330197
0.10937332619879,-0.27581695174447
0.12705862368164,-0.29748818220278
0.12083906105876,-0.29147103779801
0.12068055178297,-0.28585048284415
0.12863180862359,-0.29932704438963
0.12127262190274,-0.28981671938662
0.10390255374351,-0.26651068400623
0.10721555409581,-0.25701620667001
0.087819879782838,-0.22358658634118
0.0696345757944,-0.19435737954585
0.067976888485933,-0.19149324218115
0.051761745331584,-0.16765236559122
0.059572763267737,-0.18883033817476
0.066840125021163,-0.21292572229651
0.12185095680707,-0.29034278324489
0.11088461120957,-0.27006283871128
0.14055667890722,-0.3111491872649
0.14372254946726,-0.31598582308173
0.14326563559367,-0.31665405201906
0.10844911162539,-0.27270268761099
0.12259445417723,-0.29388381123681
0.13512596950635,-0.30411038881118
0.14226901706624,-0.31426575901466
0.12902853908998,-0.29657048583988
0.11625532615827,-0.28512125820893
0.047822893631082,-0.16242738775639
0.046508042122216,-0.15921523521996
0.036935029736058,-0.14833192989659
0.048863502323477,-0.16979067260928
0.04289361143996,-0.15808085968479
0.048960578810114,-0.17195717380088
0.15254748173126,-0.32653220915649
0.15039407641929,-0.32429487612174
0.14811842461569,-0.32122788268954
0.12106413585115,-0.29217612532729
0.10607234637454,-0.27031963574683
0.05122276304221,-0.17089481134903
0.051560309511617,-0.17129816806575
0.044493499758854,-0.16328495558513
0.041414404276459,-0.15709409141792
0.0392608245316,-0.15452306036023
0.1541592221677,-0.32846387897982
0.14910650454474,-0.32117465533521
0.046296457639576,-0.16824696634821
0.042332753113881,-0.16137146898801
0.041442176321356,-0.16282018849018
0.13948915479694,-0.3085422396247
0.13198384376935,-0.30324578801861
0.14524103796306,-0.31945133880606
0.15391534951384,-0.32809898393711
0.14801878743984,-0.32192297438335
0.15082622891875,-0.3251972627933
0.11207043953122,-0.28021426963409
0.047441383103765,-0.1698522297678
0.04318875772447,-0.16389452860046
0.0423008842728,-0.16493712920177
0.053858603407574,-0.179159429643
0.06636942372421,-0.20087569727104
0.15015061948801,-0.3250505367843
0.14725744663398,-0.32228249122281
0.14373635799219,-0.31885061268476
0.14275023127134,-0.31518624957405
0.15251855838661,-0.32681223786613
0.15304058611292,-0.32700063845099
0.15319431485511,-0.3273939178515
0.045130408009171,-0.16692046160875
0.042187267737133,-0.16504221965181
0.047594279702103,-0.18364101760656
0.048152122599243,-0.18192913027737
0.054858801990405,-0.19998473243203
0.15138474505545,-0.3250619384775
0.13744298185203,-0.30860839111882
0.10865553485998,-0.27686258614368
0.13696879916865,-0.30850762131025
0.12363872918597,-0.29379032583914
0.14580056988202,-0.32033852217258
0.15052352248332,-0.32435556280185
0.14942385711958,-0.32302413442009
0.14623083968338,-0.31905272259267
0.14096243596723,-0.31338906989921
