1,0,0,0,0,0,0,0,0,0,0.34432,0,0,0,0.05499,0,0.33109,0,0,0,0,0,0,0,0,0,0,0,-0.16626,0,0,0
1,0,0,0,0,0,0,0,0,0,0.85443,0,0,0,0.83775,0,0.75535,0,0,0,0,0,0,0,0,0,0,0,0.60436,0,0,0
1,0,0,0,0,0,0,0,0,0,0,0,0,0,0.54094,0,-1,0,0,0,0,0,0,0,0,0,0,0,0.25682,0,0,0
1,0,0,0,0,0,0,0,0,0,0.56409,0,0,0,0.5294,0,0.45107,0,0,0,0,0,0,0,0,0,0,0,-0.05707,0,0,0
0.02337,0,0,0,0,0,0,0,0,0,0,0,0,0,-0.00343,0,-0.11575,0,0,0,0,0,0,0,0,0,0,0,0,0,0,0
0.97588,0,0,0,0,0,0,0,0,0,0.78225,0,0,0,0.57945,0,0.37852,0,0,0,0,0,0,0,0,0,0,0,-0.04262,0,0,0
0,0,0,0,0,0,0,0,0,0,0,0,0,0,1,0,-1,0,0,0,0,0,0,0,0,0,0,0,1,0,0,0
0.96355,0,0,0,0,0,0,0,0,0,0.9451,0,0,0,0.98305,0,0.84537,0,0,0,0,0,0,0,0,0,0,0,0.45114,0,0,0
-0.01864,0,0,0,0,0,0,0,0,0,0,0,0,0,-0.37133,0,0.63728,0,0,0,0,0,0,0,0,0,0,0,0.16595,0,0,0
1,0,0,0,0,0,0,0,0,0,0.96232,0,0,0,0.8923,0,0.69876,0,0,0,0,0,0,0,0,0,0,0,0.30996,0,0,0
1,0,0,0,0,0,0,0,0,0,1,0,0,0,1,0,1,0,0,0,0,0,0,0,0,0,0,0,1,0,0,0
1,0,0,0,0,0,0,0,0,0,0.95735,0,0,0,0.94486,0,0.90137,0,0,0,0,0,0,0,0,0,0,0,0.68714,0,0,0
1,0,0,0,0,0,0,0,0,0,1,0,0,0,1,0,1,0,0,0,0,0,0,0,0,0,0,0,1,0,0,0
1,0,0,0,0,0,0,0,0,0,1,0,0,0,1,0,1,0,0,0,0,0,0,0,0,0,0,0,1,0,0,0
0.50932,0,0,0,0,0,0,0,0,0,0,0,0,0,-0.37681,0,1,0,0,0,0,0,0,0,0,0,0,0,1,0,0,0
0.99645,0,0,0,0,0,0,0,0,0,0.89323,0,0,0,0.88809,0,0.86104,0,0,0,0,0,0,0,0,0,0,0,0.77122,0,0,0
0,0,0,0,0,0,0,0,0,0,1,0,0,0,-1,0,-1,0,0,0,0,0,0,0,0,0,0,0,-1,0,0,0
0.67065,0,0,0,0,0,0,0,0,0,0.62099,0,0,0,0.58373,0,0.14395,0,0,0,0,0,0,0,0,0,0,0,0.40663,0,0,0
1,0,0,0,0,0,0,0,0,0,-0.71875,0,0,0,-1,0,1,0,0,0,0,0,0,0,0,0,0,0,1,0,0,0
1,0,0,0,0,0,0,0,0,0,1,0,0,0,0.92124,0,0.86473,0,0,0,0,0,0,0,0,0,0,0,0.80448,0,0,0
1,0,0,0,0,0,0,0,0,0,0,0,0,0,-1,0,-1,0,0,0,0,0,0,0,0,0,0,0,-1,0,0,0
0.96071,0,0,0,0,0,0,0,0,0,0.8325,0,0,0,0.76544,0,0.75206,0,0,0,0,0,0,0,0,0,0,0,0.5131,0,0,0
-1,0,0,0,0,0,0,0,0,0,0,0,0,0,1,0,-1,0,0,0,0,0,0,0,0,0,0,0,-1,0,0,0
1,0,0,0,0,0,0,0,0,0,0.84493,0,0,0,0.6917,0,0.65731,0,0,0,0,0,0,0,0,0,0,0,0.54356,0,0,0
1,0,0,0,0,0,0,0,0,0,1,0,0,0,1,0,1,0,0,0,0,0,0,0,0,0,0,0,1,0,0,0
1,0,0,0,0,0,0,0,0,0,0.88486,0,0,0,0.81051,0,0.12245,0,0,0,0,0,0,0,0,0,0,0,0.32984,0,0,0
-1,0,0,0,0,0,0,0,0,0,0,0,0,0,1,0,-1,0,0,0,0,0,0,0,0,0,0,0,0,0,0,0
1,0,0,0,0,0,0,0,0,0,1,0,0,0,1,0,1,0,0,0,0,0,0,0,0,0,0,0,0.64358,0,0,0
-1,0,0,0,0,0,0,0,0,0,-1,0,0,0,1,0,-1,0,0,0,0,0,0,0,0,0,0,0,-1,0,0,0
1,0,0,0,0,0,0,0,0,0,1,0,0,0,1,0,1,0,0,0,0,0,0,0,0,0,0,0,1,0,0,0
1,0,0,0,0,0,0,0,0,0,1,0,0,0,1,0,1,0,0,0,0,0,0,0,0,0,0,0,1,0,0,0
0.88208,0,0,0,0,0,0,0,0,0,0.85269,0,0,0,0.80681,0,0.75243,0,0,0,0,0,0,0,0,0,0,0,0.47075,0,0,0
0.71253,0,0,0,0,0,0,0,0,0,0.58965,0,0,0,0.8227,0,0.8076,0,0,0,0,0,0,0,0,0,0,0,0.86136,0,0,0
1,0,0,0,0,0,0,0,0,0,0.79962,0,0,0,1,0,1,0,0,0,0,0,0,0,0,0,0,0,1,0,0,0
0.66161,0,0,0,0,0,0,0,0,0,1,0,0,0,0.17589,0,1,0,0,0,0,0,0,0,0,0,0,0,1,0,0,0
1,0,0,0,0,0,0,0,0,0,1,0,0,0,0.92561,0,0.94184,0,0,0,0,0,0,0,0,0,0,0,0.83777,0,0,0
1,0,0,0,0,0,0,0,0,0,0,0,0,0,-1,0,1,0,0,0,0,0,0,0,0,0,0,0,1,0,0,0
0.91241,0,0,0,0,0,0,0,0,0,0.92766,0,0,0,0.88899,0,0.83744,0,0,0,0,0,0,0,0,0,0,0,0.70925,0,0,0
1,0,0,0,0,0,0,0,0,0,0.88462,0,0,0,0.76929,0,1,0,0,0,0,0,0,0,0,0,0,0,0.38352,0,0,0
1,0,0,0,0,0,0,0,0,0,0.75474,0,0,0,0.65954,0,0.57619,0,0,0,0,0,0,0,0,0,0,0,0.11372,0,0,0
-1,0,0,0,0,0,0,0,0,0,1,0,0,0,-1,0,0.0875,0,0,0,0,0,0,0,0,0,0,0,1,0,0,0
0.90932,0,0,0,0,0,0,0,0,0,0.16286,0,0,0,0.51067,0,0.31639,0,0,0,0,0,0,0,0,0,0,0,0.06927,0,0,0
-0.64286,0,0,0,0,0,0,0,0,0,1,0,0,0,1,0,1,0,0,0,0,0,0,0,0,0,0,0,1,0,0,0
0.99025,0,0,0,0,0,0,0,0,0,0.92651,0,0,0,0.84922,0,0.87433,0,0,0,0,0,0,0,0,0,0,0,0.54752,0,0,0
0,0,0,0,0,0,0,0,0,0,0,0,0,0,-0.375,0,-1,0,0,0,0,0,0,0,0,0,0,0,1,0,0,0
1,0,0,0,0,0,0,0,0,0,0.96674,0,0,0,0.91236,0,0.90581,0,0,0,0,0,0,0,0,0,0,0,0.77919,0,0,0
0.94598,0,0,0,0,0,0,0,0,0,-0.2902,0,0,0,0.91921,0,1,0,0,0,0,0,0,0,0,0,0,0,-0.09634,0,0,0
0.98166,0,0,0,0,0,0,0,0,0,0.94713,0,0,0,0.94217,0,0.79682,0,0,0,0,0,0,0,0,0,0,0,0.76911,0,0,0
0,0,0,0,0,0,0,0,0,0,0,0,0,0,-0.55711,0,0.7694,0,0,0,0,0,0,0,0,0,0,0,0,0,0,0
0.84134,0,0,0,0,0,0,0,0,0,0.88559,0,0,0,0.75,0,0.86676,0,0,0,0,0,0,0,0,0,0,0,0.84463,0,0,0
1,0,0,0,0,0,0,0,0,0,1,0,0,0,1,0,-1,0,0,0,0,0,0,0,0,0,0,0,0,0,0,0
1,0,0,0,0,0,0,0,0,0,-1,0,0,0,-1,0,-1,0,0,0,0,0,0,0,0,0,0,0,1,0,0,0
-0.67935,0,0,0,0,0,0,0,0,0,1,0,0,0,-1,0,0.8384,0,0,0,0,0,0,0,0,0,0,0,-1,0,0,0
0.95659,0,0,0,0,0,0,0,0,0,0.95436,0,0,0,0.9963,0,0.90343,0,0,0,0,0,0,0,0,0,0,0,0.83951,0,0,0
0.08333,0,0,0,0,0,0,0,0,0,-1,0,0,0,-0.02753,0,-0.42113,0,0,0,0,0,0,0,0,0,0,0,-1,0,0,0
1,0,0,0,0,0,0,0,0,0,1,0,0,0,1,0,1,0,0,0,0,0,0,0,0,0,0,0,0.78479,0,0,0
-1,0,0,0,0,0,0,0,0,0,-1,0,0,0,-1,0,1,0,0,0,0,0,0,0,0,0,0,0,0,0,0,0
1,0,0,0,0,0,0,0,0,0,0.95713,0,0,0,0.90896,0,0.96741,0,0,0,0,0,0,0,0,0,0,0,0.78324,0,0,0
0.17188,0,0,0,0,0,0,0,0,0,0,0,0,0,0.80521,0,0.51979,0,0,0,0,0,0,0,0,0,0,0,0,0,0,0
1,0,0,0,0,0,0,0,0,0,0.92992,0,0,0,0.85529,0,0.83656,0,0,0,0,0,0,0,0,0,0,0,0.56791,0,0,0
0.01667,0,0,0,0,0,0,0,0,0,0,0,0,0,0.22813,0,1,0,0,0,0,0,0,0,0,0,0,0,0,0,0,0
1,0,0,0,0,0,0,0,0,0,0.8425,0,0,0,0.78473,0,0.65091,0,0,0,0,0,0,0,0,0,0,0,0.33921,0,0,0
0.63816,0,0,0,0,0,0,0,0,0,-0.05921,0,0,0,-0.51535,0,0.14254,0,0,0,0,0,0,0,0,0,0,0,0.20614,0,0,0
1,0,0,0,0,0,0,0,0,0,0.65452,0,0,0,0.97613,0,0.80025,0,0,0,0,0,0,0,0,0,0,0,0.4397,0,0,0
0.84783,0,0,0,0,0,0,0,0,0,1,0,0,0,1,0,0.58424,0,0,0,0,0,0,0,0,0,0,0,1,0,0,0
1,0,0,0,0,0,0,0,0,0,1,0,0,0,0.9575,0,0.84371,0,0,0,0,0,0,0,0,0,0,0,0.94578,0,0,0
1,0,0,0,0,0,0,0,0,0,1,0,0,0,1,0,1,0,0,0,0,0,0,0,0,0,0,0,0,0,0,0
1,0,0,0,0,0,0,0,0,0,-0.79135,0,0,0,-0.39046,0,-0.97907,0,0,0,0,0,0,0,0,0,0,0,0.9357,0,0,0
1,0,0,0,0,0,0,0,0,0,1,0,0,0,1,0,1,0,0,0,0,0,0,0,0,0,0,0,1,0,0,0
1,0,0,0,0,0,0,0,0,0,1,0,0,0,1,0,1,0,0,0,0,0,0,0,0,0,0,0,0.74389,0,0,0
1,0,0,0,0,0,0,0,0,0,0,0,0,0,1,0,1,0,0,0,0,0,0,0,0,0,0,0,0,0,0,0
0.96087,0,0,0,0,0,0,0,0,0,0.86265,0,0,0,0.73242,0,0.69003,0,0,0,0,0,0,0,0,0,0,0,0.13756,0,0,0
0.69444,0,0,0,0,0,0,0,0,0,0,0,0,0,0.21032,0,0.46429,0,0,0,0,0,0,0,0,0,0,0,0,0,0,0
1,0,0,0,0,0,0,0,0,0,1,0,0,0,0.89126,0,0.75906,0,0,0,0,0,0,0,0,0,0,0,0.47027,0,0,0
1,0,0,0,0,0,0,0,0,0,1,0,0,0,1,0,1,0,0,0,0,0,0,0,0,0,0,0,0,0,0,0
1,0,0,0,0,0,0,0,0,0,0.92745,0,0,0,0.81939,0,0.78619,0,0,0,0,0,0,0,0,0,0,0,0.45312,0,0,0
1,0,0,0,0,0,0,0,0,0,1,0,0,0,1,0,-1,0,0,0,0,0,0,0,0,0,0,0,-1,0,0,0
1,0,0,0,0,0,0,0,0,0,1,0,0,0,1,0,1,0,0,0,0,0,0,0,0,0,0,0,-0.1737,0,0,0
1,0,0,0,0,0,0,0,0,0,1,0,0,0,0,0,-1,0,0,0,0,0,0,0,0,0,0,0,1,0,0,0
1,0,0,0,0,0,0,0,0,0,1,0,0,0,1,0,1,0,0,0,0,0,0,0,0,0,0,0,1,0,0,0
1,0,0,0,0,0,0,0,0,0,1,0,0,0,1,0,1,0,0,0,0,0,0,0,0,0,0,0,1,0,0,0
0.92277,0,0,0,0,0,0,0,0,0,0.70716,0,0,0,0.60459,0,0.51247,0,0,0,0,0,0,0,0,0,0,0,0.02735,0,0,0
0.68198,0,0,0,0,0,0,0,0,0,0.0106,0,0,0,0.18681,0,0.10567,0,0,0,0,0,0,0,0,0,0,0,-0.04585,0,0,0
0.74852,0,0,0,0,0,0,0,0,0,0.71598,0,0,0,0.7855,0,0.65976,0,0,0,0,0,0,0,0,0,0,0,0.59024,0,0,0
0.39179,0,0,0,0,0,0,0,0,0,0.61567,0,0,0,0.66791,0,0.46642,0,0,0,0,0,0,0,0,0,0,0,0.39118,0,0,0
0.67547,0,0,0,0,0,0,0,0,0,0.66792,0,0,0,0.76981,0,0.61887,0,0,0,0,0,0,0,0,0,0,0,0.86415,0,0,0
0.72727,0,0,0,0,0,0,0,0,0,0.81809,0,0,0,0.50455,0,0.66818,0,0,0,0,0,0,0,0,0,0,0,0.48927,0,0,0
0.57647,0,0,0,0,0,0,0,0,0,0.46667,0,0,0,0.58039,0,0.50196,0,0,0,0,0,0,0,0,0,0,0,0.45098,0,0,0
0.41932,0,0,0,0,0,0,0,0,0,-0.19091,0,0,0,0.02727,0,-0.34773,0,0,0,0,0,0,0,0,0,0,0,-0.02916,0,0,0
0.88305,0,0,0,0,0,0,0,0,0,0.85193,0,0,0,0.69206,0,0.7103,0,0,0,0,0,0,0,0,0,0,0,0.43026,0,0,0
0.84557,0,0,0,0,0,0,0,0,0,-0.18494,0,0,0,0.85701,0,0.77979,0,0,0,0,0,0,0,0,0,0,0,-0.21354,0,0,0
0.7087,0,0,0,0,0,0,0,0,0,0.57826,0,0,0,0.38696,0,0.36087,0,0,0,0,0,0,0,0,0,0,0,0.64348,0,0,0
-0.5418,0,0,0,0,0,0,0,0,0,0.47368,0,0,0,0.16409,0,0.33746,0,0,0,0,0,0,0,0,0,0,0,0.02399,0,0,0
0.29202,0,0,0,0,0,0,0,0,0,0.47368,0,0,0,0.81664,0,0.42445,0,0,0,0,0,0,0,0,0,0,0,0.70798,0,0,0
0.79157,0,0,0,0,0,0,0,0,0,-0.02439,0,0,0,-0.02661,0,-0.50998,0,0,0,0,0,0,0,0,0,0,0,-1,0,0,0
0.90116,0,0,0,0,0,0,0,0,0,0.24412,0,0,0,-0.12611,0,-0.28739,0,0,0,0,0,0,0,0,0,0,0,-0.71475,0,0,0
0.97714,0,0,0,0,0,0,0,0,0,0.10289,0,0,0,-0.3202,0,-0.52145,0,0,0,0,0,0,0,0,0,0,0,-0.67289,0,0,0
-1,0,0,0,0,0,0,0,0,0,0,0,0,0,1,0,0.36482,0,0,0,0,0,0,0,0,0,0,0,1,0,0,0
0.74084,0,0,0,0,0,0,0,0,0,0.75934,0,0,0,0.70681,0,0.63613,0,0,0,0,0,0,0,0,0,0,0,0.59759,0,0,0
1,0,0,0,0,0,0,0,0,0,0,0,0,0,0.72059,0,0.73529,0,0,0,0,0,0,0,0,0,0,0,1,0,0,0
1,0,0,0,0,0,0,0,0,0,0.99173,0,0,0,1,0,0.9831,0,0,0,0,0,0,0,0,0,0,0,0.96436,0,0,0
0,0,0,0,0,0,0,0,0,0,0,0,0,0,0,0,0,0,0,0,0,0,0,0,0,0,0,0,0,0,0,0
0.95704,0,0,0,0,0,0,0,0,0,0.83543,0,0,0,0.99273,0,0.98678,0,0,0,0,0,0,0,0,0,0,0,0.89095,0,0,0
0.28409,0,0,0,0,0,0,0,0,0,0.34848,0,0,0,0.59091,0,0.45076,0,0,0,0,0,0,0,0,0,0,0,0.16288,0,0,0
0.9449,0,0,0,0,0,0,0,0,0,1,0,0,0,1,0,1,0,0,0,0,0,0,0,0,0,0,0,1,0,0,0
0,0,0,0,0,0,0,0,0,0,0,0,0,0,0.36585,0,0.56098,0,0,0,0,0,0,0,0,0,0,0,0,0,0,0
0.99449,0,0,0,0,0,0,0,0,0,0.85221,0,0,0,0.93881,0,0.98298,0,0,0,0,0,0,0,0,0,0,0,0.80253,0,0,0
0.10135,0,0,0,0,0,0,0,0,0,0,0,0,0,0.37162,0,0.33108,0,0,0,0,0,0,0,0,0,0,0,0,0,0,0
1,0,0,0,0,0,0,0,0,0,0.6289,0,0,0,1,0,0.76771,0,0,0,0,0,0,0,0,0,0,0,1,0,0,0
0.65909,0,0,0,0,0,0,0,0,0,0,0,0,0,0.62121,0,0.84091,0,0,0,0,0,0,0,0,0,0,0,0,0,0,0
0.86284,0,0,0,0,0,0,0,0,0,0.19617,0,0,0,-0.17241,0,-0.341,0,0,0,0,0,0,0,0,0,0,0,-0.54866,0,0,0
0.42,0,0,0,0,0,0,0,0,0,0,0,0,0,0.67,0,0.84,0,0,0,0,0,0,0,0,0,0,0,0,0,0,0
1,0,0,0,0,0,0,0,0,0,0.09467,0,0,0,-0.34168,0,-0.5136,0,0,0,0,0,0,0,0,0,0,0,-0.51251,0,0,0
0.91353,0,0,0,0,0,0,0,0,0,-0.03158,0,0,0,0.01108,0,0.00342,0,0,0,0,0,0,0,0,0,0,0,0,0,0,0
0.21429,0,0,0,0,0,0,0,0,0,0.30952,0,0,0,0.28571,0,0.33333,0,0,0,0,0,0,0,0,0,0,0,0.16997,0,0,0
1,0,0,0,0,0,0,0,0,0,0.72131,0,0,0,0.19672,0,0.65558,0,0,0,0,0,0,0,0,0,0,0,0.27869,0,0,0
0.98182,0,0,0,0,0,0,0,0,0,0.79343,0,0,0,0.62727,0,0.68182,0,0,0,0,0,0,0,0,0,0,0,0.60715,0,0,0
0.39286,0,0,0,0,0,0,0,0,0,-0.6723,0,0,0,0.46429,0,0.54762,0,0,0,0,0,0,0,0,0,0,0,-0.54891,0,0,0
0.86889,0,0,0,0,0,0,0,0,0,1,0,0,0,0.86889,0,0.88,0,0,0,0,0,0,0,0,0,0,0,1,0,0,0
0.43636,0,0,0,0,0,0,0,0,0,0.29091,0,0,0,0.2,0,0.36364,0,0,0,0,0,0,0,0,0,0,0,0.12727,0,0,0
1,0,0,0,0,0,0,0,0,0,0.45283,0,0,0,0.98878,0,0.5283,0,0,0,0,0,0,0,0,0,0,0,1,0,0,0
0.7381,0,0,0,0,0,0,0,0,0,0.33333,0,0,0,-0.38214,0,0.2381,0,0,0,0,0,0,0,0,0,0,0,-0.66667,0,0,0
0.4375,0,0,0,0,0,0,0,0,0,0.29167,0,0,0,0.4375,0,0.35417,0,0,0,0,0,0,0,0,0,0,0,0.58333,0,0,0
1,0,0,0,0,0,0,0,0,0,-0.51504,0,0,0,0.64662,0,0,0,0,0,0,0,0,0,0,0,0,0,0,0,0,0
0.95217,0,0,0,0,0,0,0,0,0,0.77937,0,0,0,0.66145,0,0.95472,0,0,0,0,0,0,0,0,0,0,0,0.23405,0,0,0
0.5984,0,0,0,0,0,0,0,0,0,0.95824,0,0,0,0.95452,0,0.88673,0,0,0,0,0,0,0,0,0,0,0,0.87757,0,0,0
0.95882,0,0,0,0,0,0,0,0,0,0.9798,0,0,0,1,0,0.9384,0,0,0,0,0,0,0,0,0,0,0,1,0,0,0
0,0,0,0,0,0,0,0,0,0,-0.26048,0,0,0,0.94155,0,0,0,0,0,0,0,0,0,0,0,0,0,0.04447,0,0,0
0.96933,0,0,0,0,0,0,0,0,0,1,0,0,0,1,0,0.98485,0,0,0,0,0,0,0,0,0,0,0,1,0,0,0
0,0,0,0,0,0,0,0,0,0,1,0,0,0,1,0,0,0,0,0,0,0,0,0,0,0,0,0,1,0,0,0
0.64122,0,0,0,0,0,0,0,0,0,0.21951,0,0,0,0.36585,0,0.31707,0,0,0,0,0,0,0,0,0,0,0,0.19512,0,0,0
1,0,0,0,0,0,0,0,0,0,1,0,0,0,1,0,0,0,0,0,0,0,0,0,0,0,0,0,1,0,0,0
0.34694,0,0,0,0,0,0,0,0,0,0.12245,0,0,0,-0.06122,0,-0.20408,0,0,0,0,0,0,0,0,0,0,0,-0.34694,0,0,0
0,0,0,0,0,0,0,0,0,0,1,0,0,0,1,0,0,0,0,0,0,0,0,0,0,0,0,0,1,0,0,0
0.89706,0,0,0,0,0,0,0,0,0,-0.02206,0,0,0,-0.375,0,-0.5,0,0,0,0,0,0,0,0,0,0,0,-0.44118,0,0,0
-1,0,0,0,0,0,0,0,0,0,-0.81699,0,0,0,-0.98039,0,-0.60131,0,0,0,0,0,0,0,0,0,0,0,0.18301,0,0,0
0.26667,0,0,0,0,0,0,0,0,0,0.71667,0,0,0,0.53333,0,0.41667,0,0,0,0,0,0,0,0,0,0,0,0.46667,0,0,0
-0.26667,0,0,0,0,0,0,0,0,0,-0.00885,0,0,0,-0.00092999999999999,0,0.0046999999999999,0,0,0,0,0,0,0,0,0,0,0,0,0,0,0
1,0,0,0,0,0,0,0,0,0,0.51351,0,0,0,0.32432,0,0.71833,0,0,0,0,0,0,0,0,0,0,0,0.72973,0,0,0
0.94531,0,0,0,0,0,0,0,0,0,-1,0,0,0,0.95313,0,0.92188,0,0,0,0,0,0,0,0,0,0,0,-1,0,0,0
0.95202,0,0,0,0,0,0,0,0,0,0.95665,0,0,0,0.9948,0,0.99769,0,0,0,0,0,0,0,0,0,0,0,0.95434,0,0,0
1,0,0,0,0,0,0,0,0,0,0.16667,0,0,0,1,0,1,0,0,0,0,0,0,0,0,0,0,0,1,0,0,0
0.31034,0,0,0,0,0,0,0,0,0,0.01707,0,0,0,0.00281,0,0.00078,0,0,0,0,0,0,0,0,0,0,0,-0.00012000000000001,0,0,0
0.62745,0,0,0,0,0,0,0,0,0,0.66667,0,0,0,0.54902,0,0.54902,0,0,0,0,0,0,0,0,0,0,0,0.43137,0,0,0
0.25,0,0,0,0,0,0,0,0,0,-0.02367,0,0,0,-0.03766,0,-0.0323,0,0,0,0,0,0,0,0,0,0,0,-0.00088999999999995,0,0,0
-0.65625,0,0,0,0,0,0,0,0,0,-0.03125,0,0,0,0.15625,0,0.4375,0,0,0,0,0,0,0,0,0,0,0,-0.03125,0,0,0
1,0,0,0,0,0,0,0,0,0,0.98919,0,0,0,0.95135,0,0.97838,0,0,0,0,0,0,0,0,0,0,0,1,0,0,0
0.85271,0,0,0,0,0,0,0,0,0,1,0,0,0,0.81395,0,0.90698,0,0,0,0,0,0,0,0,0,0,0,1,0,0,0
0.90374,0,0,0,0,0,0,0,0,0,1,0,0,0,1,0,0.91444,0,0,0,0,0,0,0,0,0,0,0,1,0,0,0
-0.205,0,0,0,0,0,0,0,0,0,0.0925,0,0,0,-0.0875,0,-0.34187,0,0,0,0,0,0,0,0,0,0,0,-0.27104,0,0,0
0.6,0,0,0,0,0,0,0,0,0,0.8,0,0,0,0.7,0,0.66667,0,0,0,0,0,0,0,0,0,0,0,0.6,0,0,0
0.05866,0,0,0,0,0,0,0,0,0,-0.00559,0,0,0,0,0,-0.06425,0,0,0,0,0,0,0,0,0,0,0,0.04469,0,0,0
0.94653,0,0,0,0,0,0,0,0,0,-0.47644,0,0,0,-0.66455,0,-0.65426,0,0,0,0,0,0,0,0,0,0,0,0.46059,0,0,0
0.0546,0,0,0,0,0,0,0,0,0,-0.03736,0,0,0,-0.09483,0,-0.04023,0,0,0,0,0,0,0,0,0,0,0,0.02586,0,0,0
0.72414,0,0,0,0,0,0,0,0,0,0.8335,0,0,0,0.80099,0,0.79113,0,0,0,0,0,0,0,0,0,0,0,0.82956,0,0,0
0.03852,0,0,0,0,0,0,0,0,0,0.01427,0,0,0,-0.04708,0,-0.01712,0,0,0,0,0,0,0,0,0,0,0,-0.02568,0,0,0
0.4709,0,0,0,0,0,0,0,0,0,-0.34127,0,0,0,-0.51587,0,-0.5,0,0,0,0,0,0,0,0,0,0,0,0.24868,0,0,0
0.08696,0,0,0,0,0,0,0,0,0,0.12357,0,0,0,0.29062,0,0.18993,0,0,0,0,0,0,0,0,0,0,0,0.09611,0,0,0
0.94333,0,0,0,0,0,0,0,0,0,-0.76051,0,0,0,-0.38391,0,-0.12797,0,0,0,0,0,0,0,0,0,0,0,0.02742,0,0,0
0.01975,0,0,0,0,0,0,0,0,0,0.01975,0,0,0,-0.0409,0,-0.02398,0,0,0,0,0,0,0,0,0,0,0,-0.01693,0,0,0
0.85736,0,0,0,0,0,0,0,0,0,0.88051,0,0,0,0.83719,0,0.8357,0,0,0,0,0,0,0,0,0,0,0,0.73936,0,0,0
1,0,0,0,0,0,0,0,0,0,-1,0,0,0,1,0,1,0,0,0,0,0,0,0,0,0,0,0,-1,0,0,0
0.85209,0,0,0,0,0,0,0,0,0,-0.93092,0,0,0,-0.6603,0,-0.1926,0,0,0,0,0,0,0,0,0,0,0,0.19667,0,0,0
1,0,0,0,0,0,0,0,0,0,1,0,0,0,1,0,1,0,0,0,0,0,0,0,0,0,0,0,-0.94375,0,0,0
1,0,0,0,0,0,0,0,0,0,-1,0,0,0,-0.64706,0,-0.23529,0,0,0,0,0,0,0,0,0,0,0,0.23529,0,0,0
0,0,0,0,0,0,0,0,0,0,1,0,0,0,0,0,0,0,0,0,0,0,0,0,0,0,0,0,-1,0,0,0
0.44444,0,0,0,0,0,0,0,0,0,-1,0,0,0,-0.66667,0,0.55556,0,0,0,0,0,0,0,0,0,0,0,0.22222,0,0,0
0,0,0,0,0,0,0,0,0,0,0,0,0,0,0,0,0,0,0,0,0,0,0,0,0,0,0,0,0,0,0,0
1,0,0,0,0,0,0,0,0,0,0.89067,0,0,0,0.75,0,0.75,0,0,0,0,0,0,0,0,0,0,0,0.69635,0,0,0
-1,0,0,0,0,0,0,0,0,0,1,0,0,0,0,0,-1,0,0,0,0,0,0,0,0,0,0,0,-1,0,0,0
1,0,0,0,0,0,0,0,0,0,1,0,0,0,0.77778,0,1,0,0,0,0,0,0,0,0,0,0,0,0.88889,0,0,0
0,0,0,0,0,0,0,0,0,0,-1,0,0,0,1,0,0,0,0,0,0,0,0,0,0,0,0,0,1,0,0,0
1,0,0,0,0,0,0,0,0,0,1,0,0,0,1,0,1,0,0,0,0,0,0,0,0,0,0,0,1,0,0,0
0.62121,0,0,0,0,0,0,0,0,0,-0.07576,0,0,0,-0.53788,0,0.12121,0,0,0,0,0,0,0,0,0,0,0,0.18182,0,0,0
1,0,0,0,0,0,0,0,0,0,1,0,0,0,1,0,1,0,0,0,0,0,0,0,0,0,0,0,1,0,0,0
0,0,0,0,0,0,0,0,0,0,0.12766,0,0,0,0,0,0.82979,0,0,0,0,0,0,0,0,0,0,0,0.74468,0,0,0
0.91667,0,0,0,0,0,0,0,0,0,0.83333,0,0,0,0.875,0,1,0,0,0,0,0,0,0,0,0,0,0,0.70833,0,0,0
0.1859,0,0,0,0,0,0,0,0,0,0.11538,0,0,0,0,0,0,0,0,0,0,0,0,0,0,0,0,0,0.02564,0,0,0
1,0,0,0,0,0,0,0,0,0,0.85788,0,0,0,0.73084,0,0.68131,0,0,0,0,0,0,0,0,0,0,0,0.24117,0,0,0
1,0,0,0,0,0,0,0,0,0,0.22807,0,0,0,0.72807,0,0.22807,0,0,0,0,0,0,0,0,0,0,0,0.35088,0,0,0
1,0,0,0,0,0,0,0,0,0,0.73855,0,0,0,0.47194,0,0.40473,0,0,0,0,0,0,0,0,0,0,0,0.15657,0,0,0
-1,0,0,0,0,0,0,0,0,0,1,0,0,0,1,0,0,0,0,0,0,0,0,0,0,0,0,0,-1,0,0,0
0.92247,0,0,0,0,0,0,0,0,0,0.70302,0,0,0,0.37254,0,0.2707,0,0,0,0,0,0,0,0,0,0,0,-0.0184,0,0,0
-1,0,0,0,0,0,0,0,0,0,0.23958,0,0,0,0,0,1,0,0,0,0,0,0,0,0,0,0,0,0.69792,0,0,0
0.84177,0,0,0,0,0,0,0,0,0,-0.93882,0,0,0,-0.62869,0,-0.25105,0,0,0,0,0,0,0,0,0,0,0,0.31435,0,0,0
1,0,0,0,0,0,0,0,0,0,1,0,0,0,1,0,1,0,0,0,0,0,0,0,0,0,0,0,-1,0,0,0
1,0,0,0,0,0,0,0,0,0,0,0,0,0,-1,0,-1,0,0,0,0,0,0,0,0,0,0,0,0,0,0,0
-1,0,0,0,0,0,0,0,0,0,-1,0,0,0,0,0,-1,0,0,0,0,0,0,0,0,0,0,0,1,0,0,0
1,0,0,0,0,0,0,0,0,0,1,0,0,0,-0.375,0,1,0,0,0,0,0,0,0,0,0,0,0,1,0,0,0
-1,0,0,0,0,0,0,0,0,0,0,0,0,0,0,0,-1,0,0,0,0,0,0,0,0,0,0,0,0,0,0,0
0.64947,0,0,0,0,0,0,0,0,0,0.28931,0,0,0,0.20269,0,0.15196,0,0,0,0,0,0,0,0,0,0,0,-0.04717,0,0,0
0,0,0,0,0,0,0,0,0,0,0.16667,0,0,0,0,0,0,0,0,0,0,0,0,0,0,0,0,0,-0.125,0,0,0
1,0,0,0,0,0,0,0,0,0,0.80426,0,0,0,0.66775,0,0.59615,0,0,0,0,0,0,0,0,0,0,0,0.22427,0,0,0
1,0,0,0,0,0,0,0,0,0,-1,0,0,0,0.47364,0,1,0,0,0,0,0,0,0,0,0,0,0,-1,0,0,0
0.93669,0,0,0,0,0,0,0,0,0,0.99676,0,0,0,0.84628,0,0.87379,0,0,0,0,0,0,0,0,0,0,0,0.78317,0,0,0
1,0,0,0,0,0,0,0,0,0,1,0,0,0,0,0,1,0,0,0,0,0,0,0,0,0,0,0,-0.75,0,0,0
1,0,0,0,0,0,0,0,0,0,0.9812,0,0,0,0.95802,0,0.83584,0,0,0,0,0,0,0,0,0,0,0,1,0,0,0
0.36876,0,0,0,0,0,0,0,0,0,-1,0,0,0,0.48684,0,0.31755,0,0,0,0,0,0,0,0,0,0,0,-0.00761,0,0,0
0.79847,0,0,0,0,0,0,0,0,0,0.99745,0,0,0,1,0,0.95663,0,0,0,0,0,0,0,0,0,0,0,1,0,0,0
0,0,0,0,0,0,0,0,0,0,1,0,0,0,1,0,0,0,0,0,0,0,0,0,0,0,0,0,1,0,0,0
1,0,0,0,0,0,0,0,0,0,0.90818,0,0,0,0.69748,0,0.59623,0,0,0,0,0,0,0,0,0,0,0,0.16604,0,0,0
0,0,0,0,0,0,0,0,0,0,1,0,0,0,-1,0,-1,0,0,0,0,0,0,0,0,0,0,0,0,0,0,0
1,0,0,0,0,0,0,0,0,0,1,0,0,0,1,0,1,0,0,0,0,0,0,0,0,0,0,0,0.86364,0,0,0
0,0,0,0,0,0,0,0,0,0,-1,0,0,0,-1,0,1,0,0,0,0,0,0,0,0,0,0,0,1,0,0,0
0.91176,0,0,0,0,0,0,0,0,0,0.97059,0,0,0,1,0,1,0,0,0,0,0,0,0,0,0,0,0,0.97059,0,0,0
-1,0,0,0,0,0,0,0,0,0,1,0,0,0,0.28301,0,1,0,0,0,0,0,0,0,0,0,0,0,-1,0,0,0
0.47368,0,0,0,0,0,0,0,0,0,0.79856,0,0,0,0.84211,0,1,0,0,0,0,0,0,0,0,0,0,0,0.6015,0,0,0
-0.00641,0,0,0,0,0,0,0,0,0,0,0,0,0,0,0,0.3141,0,0,0,0,0,0,0,0,0,0,0,0,0,0,0
1,0,0,0,0,0,0,0,0,0,0.81818,0,0,0,1,0,1,0,0,0,0,0,0,0,0,0,0,0,1,0,0,0
-1,0,0,0,0,0,0,0,0,0,1,0,0,0,0,0,0,0,0,0,0,0,0,0,0,0,0,0,1,0,0,0
0.45455,0,0,0,0,0,0,0,0,0,0.45455,0,0,0,0.63636,0,0.45455,0,0,0,0,0,0,0,0,0,0,0,0.36364,0,0,0
-1,0,0,0,0,0,0,0,0,0,0,0,0,0,0,0,0,0,0,0,0,0,0,0,0,0,0,0,0,0,0,0
1,0,0,0,0,0,0,0,0,0,1,0,0,0,0.42857,0,1,0,0,0,0,0,0,0,0,0,0,0,1,0,0,0
1,0,0,0,0,0,0,0,0,0,1,0,0,0,1,0,1,0,0,0,0,0,0,0,0,0,0,0,1,0,0,0
0.87032,0,0,0,0,0,0,0,0,0,-0.92099,0,0,0,-0.59383,0,-0.24012,0,0,0,0,0,0,0,0,0,0,0,0.25974,0,0,0
1,0,0,0,0,0,0,0,0,0,1,0,0,0,1,0,1,0,0,0,0,0,0,0,0,0,0,0,1,0,0,0
0.92657,0,0,0,0,0,0,0,0,0,0.76221,0,0,0,0.60101,0,0.53392,0,0,0,0,0,0,0,0,0,0,0,0.14312,0,0,0
1,0,0,0,0,0,0,0,0,0,1,0,0,0,0,0,0,0,0,0,0,0,0,0,0,0,0,0,-1,0,0,0
0.93537,0,0,0,0,0,0,0,0,0,0.6526,0,0,0,0.41629,0,0.25539,0,0,0,0,0,0,0,0,0,0,0,-0.38532,0,0,0
1,0,0,0,0,0,0,0,0,0,-1,0,0,0,1,0,1,0,0,0,0,0,0,0,0,0,0,0,-1,0,0,0
0.80627,0,0,0,0,0,0,0,0,0,0.25,0,0,0,0.15215,0,-0.09808,0,0,0,0,0,0,0,0,0,0,0,-0.26634,0,0,0
1,0,0,0,0,0,0,0,0,0,1,0,0,0,1,0,1,0,0,0,0,0,0,0,0,0,0,0,1,0,0,0
0.97467,0,0,0,0,0,0,0,0,0,0.72298,0,0,0,0.58548,0,0.48869,0,0,0,0,0,0,0,0,0,0,0,-0.02962,0,0,0
0,0,0,0,0,0,0,0,0,0,1,0,0,0,0,0,0,0,0,0,0,0,0,0,0,0,0,0,-1,0,0,0
0.92308,0,0,0,0,0,0,0,0,0,0.4327,0,0,0,0.19128,0,0.04686,0,0,0,0,0,0,0,0,0,0,0,-0.53146,0,0,0
0,0,0,0,0,0,0,0,0,0,-1,0,0,0,-1,0,0,0,0,0,0,0,0,0,0,0,0,0,-1,0,0,0
0.88804,0,0,0,0,0,0,0,0,0,-0.64574,0,0,0,-0.7894,0,-0.6278,0,0,0,0,0,0,0,0,0,0,0,0.47029,0,0,0
1,0,0,0,0,0,0,0,0,0,1,0,0,0,1,0,1,0,0,0,0,0,0,0,0,0,0,0,1,0,0,0
0.73523,0,0,0,0,0,0,0,0,0,0.71947,0,0,0,0.49672,0,0.64333,0,0,0,0,0,0,0,0,0,0,0,0.3507,0,0,0
0,0,0,0,0,0,0,0,0,0,0,0,0,0,0,0,0,0,0,0,0,0,0,0,0,0,0,0,0,0,0,0
0.94649,0,0,0,0,0,0,0,0,0,0.97213,0,0,0,0.94277,0,0.98551,0,0,0,0,0,0,0,0,0,0,0,0.97845,0,0,0
1,0,0,0,0,0,0,0,0,0,-1,0,0,0,0,0,0,0,0,0,0,0,0,0,0,0,0,0,-1,0,0,0
0.50466,0,0,0,0,0,0,0,0,0,0.6905,0,0,0,0.67023,0,0.63403,0,0,0,0,0,0,0,0,0,0,0,0.56466,0,0,0
0.68729,0,0,0,0,0,0,0,0,0,0.70067,0,0,0,0.93478,0,0.70736,0,0,0,0,0,0,0,0,0,0,0,1,0,0,0
0.76296,0,0,0,0,0,0,0,0,0,1,0,0,0,0.49259,0,0.82222,0,0,0,0,0,0,0,0,0,0,0,0.87492,0,0,0
0.38521,0,0,0,0,0,0,0,0,0,0.24514,0,0,0,-0.03891,0,0.05058,0,0,0,0,0,0,0,0,0,0,0,-0.09339,0,0,0
0.5754,0,0,0,0,0,0,0,0,0,0.59127,0,0,0,0.70833,0,0.60317,0,0,0,0,0,0,0,0,0,0,0,0.68849,0,0,0
0.06404,0,0,0,0,0,0,0,0,0,0.12315,0,0,0,0.0197,0,-0.12808,0,0,0,0,0,0,0,0,0,0,0,0.04433,0,0,0
0.61857,0,0,0,0,0,0,0,0,0,0.71588,0,0,0,0.83669,0,0.6868,0,0,0,0,0,0,0,0,0,0,0,0.78859,0,0,0
0.25316,0,0,0,0,0,0,0,0,0,0,0,0,0,0,0,0,0,0,0,0,0,0,0,0,0,0,0,0.06329,0,0,0
0.88103,0,0,0,0,0,0,0,0,0,0.88853,0,0,0,0.87138,0,0.90782,0,0,0,0,0,0,0,0,0,0,0,0.88424,0,0,0
0.42708,0,0,0,0,0,0,0,0,0,0,0,0,0,0.16458,0,0.59167,0,0,0,0,0,0,0,0,0,0,0,0,0,0,0
0.88853,0,0,0,0,0,0,0,0,0,0.9304,0,0,0,0.86025,0,0.89451,0,0,0,0,0,0,0,0,0,0,0,0.83524,0,0,0
0,0,0,0,0,0,0,0,0,0,1,0,0,0,1,0,0,0,0,0,0,0,0,0,0,0,0,0,1,0,0,0
0.81143,0,0,0,0,0,0,0,0,0,0.85571,0,0,0,0.82857,0,0.81,0,0,0,0,0,0,0,0,0,0,0,0.81429,0,0,0
0,0,0,0,0,0,0,0,0,0,-1,0,0,0,0,0,0,0,0,0,0,0,0,0,0,0,0,0,0,0,0,0
0.4987,0,0,0,0,0,0,0,0,0,0.55844,0,0,0,0.52727,0,0.55325,0,0,0,0,0,0,0,0,0,0,0,0.54545,0,0,0
0,0,0,0,0,0,0,0,0,0,0,0,0,0,0,0,0,0,0,0,0,0,0,0,0,0,0,0,0,0,0,0
1,0,0,0,0,0,0,0,0,0,-0.34107,0,0,0,-0.43663,0,-0.36676,0,0,0,0,0,0,0,0,0,0,0,0.02224,0,0,0
0,0,0,0,0,0,0,0,0,0,1,0,0,0,0,0,-1,0,0,0,0,0,0,0,0,0,0,0,0,0,0,0
0.87048,0,0,0,0,0,0,0,0,0,-0.70561,0,0,0,-0.81136,0,-0.67474,0,0,0,0,0,0,0,0,0,0,0,0.56239,0,0,0
0,0,0,0,0,0,0,0,0,0,1,0,0,0,0,0,-1,0,0,0,0,0,0,0,0,0,0,0,0,0,0,0
0.88179,0,0,0,0,0,0,0,0,0,-0.86443,0,0,0,-0.77356,0,-0.4695,0,0,0,0,0,0,0,0,0,0,0,0.58137,0,0,0
0.32834,0,0,0,0,0,0,0,0,0,-0.61352,0,0,0,-0.13117,0,-0.30315,0,0,0,0,0,0,0,0,0,0,0,0.15078,0,0,0
0.83427,0,0,0,0,0,0,0,0,0,-0.86622,0,0,0,-0.59714,0,-0.19354,0,0,0,0,0,0,0,0,0,0,0,0.37542,0,0,0
0.62335,0,0,0,0,0,0,0,0,0,0.67028,0,0,0,0.67509,0,0.67148,0,0,0,0,0,0,0,0,0,0,0,0.61733,0,0,0
0.74449,0,0,0,0,0,0,0,0,0,0.63787,0,0,0,1,0,0.61029,0,0,0,0,0,0,0,0,0,0,0,0.55916,0,0,0
0.61538,0,0,0,0,0,0,0,0,0,0.73961,0,0,0,0.68615,0,0.61692,0,0,0,0,0,0,0,0,0,0,0,0.53389,0,0,0
0.68317,0,0,0,0,0,0,0,0,0,0.81892,0,0,0,0.80622,0,0.77935,0,0,0,0,0,0,0,0,0,0,0,0.66624,0,0,0
0.5,0,0,0,0,0,0,0,0,0,0.45652,0,0,0,0.35652,0,0.42174,0,0,0,0,0,0,0,0,0,0,0,0.35217,0,0,0
0.7983,0,0,0,0,0,0,0,0,0,0.57898,0,0,0,0.33354,0,0.29587,0,0,0,0,0,0,0,0,0,0,0,-0.25516,0,0,0
1,0,0,0,0,0,0,0,0,0,0.56937,0,0,0,0.29452,0,0.21137,0,0,0,0,0,0,0,0,0,0,0,-0.40291,0,0,0
0.8941,0,0,0,0,0,0,0,0,0,0.39699,0,0,0,0.09134,0,-0.09159,0,0,0,0,0,0,0,0,0,0,0,-0.52823,0,0,0
0.94631,0,0,0,0,0,0,0,0,0,0.48698,0,0,0,0.17959,0,-0.00701,0,0,0,0,0,0,0,0,0,0,0,-0.75321,0,0,0
0.91767,0,0,0,0,0,0,0,0,0,0.361,0,0,0,0.00396,0,-0.1639,0,0,0,0,0,0,0,0,0,0,0,-0.6571,0,0,0
0.76627,0,0,0,0,0,0,0,0,0,-0.07727,0,0,0,-0.27491,0,-0.56136,0,0,0,0,0,0,0,0,0,0,0,-0.19962,0,0,0
0.5894,0,0,0,0,0,0,0,0,0,0.50331,0,0,0,0.71854,0,0.54305,0,0,0,0,0,0,0,0,0,0,0,0.43484,0,0,0
1,0,0,0,0,0,0,0,0,0,0.6907,0,0,0,0.53131,0,0.6945,0,0,0,0,0,0,0,0,0,0,0,0.44141,0,0,0
0.84843,0,0,0,0,0,0,0,0,0,0.6726,0,0,0,0.39199,0,0.71254,0,0,0,0,0,0,0,0,0,0,0,0.44277,0,0,0
1,0,0,0,0,0,0,0,0,0,0.96186,0,0,0,0.98497,0,0.91152,0,0,0,0,0,0,0,0,0,0,0,0.92774,0,0,0
0.47938,0,0,0,0,0,0,0,0,0,0.49485,0,0,0,0.42268,0,0.5,0,0,0,0,0,0,0,0,0,0,0,0.47423,0,0,0
0.6351,0,0,0,0,0,0,0,0,0,0.79446,0,0,0,0.59584,0,0.6351,0,0,0,0,0,0,0,0,0,0,0,0.66316,0,0,0
0.50112,0,0,0,0,0,0,0,0,0,0.71685,0,0,0,0.57303,0,0.64719,0,0,0,0,0,0,0,0,0,0,0,0.54607,0,0,0
0.71521,0,0,0,0,0,0,0,0,0,0.64725,0,0,0,0.54369,0,0.46926,0,0,0,0,0,0,0,0,0,0,0,0.49191,0,0,0
0.68148,0,0,0,0,0,0,0,0,0,0.59753,0,0,0,0.78272,0,0.73827,0,0,0,0,0,0,0,0,0,0,0,0.61235,0,0,0
0.60678,0,0,0,0,0,0,0,0,0,0.57966,0,0,0,0.64068,0,0.56949,0,0,0,0,0,0,0,0,0,0,0,0.58983,0,0,0
0.49515,0,0,0,0,0,0,0,0,0,0.33495,0,0,0,0.47087,0,0.43204,0,0,0,0,0,0,0,0,0,0,0,0.26214,0,0,0
0.98822,0,0,0,0,0,0,0,0,0,0.55076,0,0,0,0.318,0,0.28379,0,0,0,0,0,0,0,0,0,0,0,-0.34717,0,0,0
0.97905,0,0,0,0,0,0,0,0,0,0.40349,0,0,0,0.047,0,-0.12193,0,0,0,0,0,0,0,0,0,0,0,-0.65754,0,0,0
0.99701,0,0,0,0,0,0,0,0,0,0.10107,0,0,0,-0.28269,0,-0.43707,0,0,0,0,0,0,0,0,0,0,0,-0.54615,0,0,0
0.94331,0,0,0,0,0,0,0,0,0,0.14939,0,0,0,-0.24742,0,-0.42811,0,0,0,0,0,0,0,0,0,0,0,-0.75199,0,0,0
0.93972,0,0,0,0,0,0,0,0,0,-0.20015,0,0,0,-0.58835,0,-0.76305,0,0,0,0,0,0,0,0,0,0,0,-0.26389,0,0,0
0.89835,0,0,0,0,0,0,0,0,0,-0.25137,0,0,0,-0.6675,0,-0.47359,0,0,0,0,0,0,0,0,0,0,0,0.36586,0,0,0
0.29073,0,0,0,0,0,0,0,0,0,-0.04725,0,0,0,-0.06328,0,-0.05431,0,0,0,0,0,0,0,0,0,0,0,0.00096000000000007,0,0,0
0.58459,0,0,0,0,0,0,0,0,0,0.65977,0,0,0,0.72368,0,0.76128,0,0,0,0,0,0,0,0,0,0,0,0.15602,0,0,0
0.83609,0,0,0,0,0,0,0,0,0,0.49418,0,0,0,0.29352,0,0.48158,0,0,0,0,0,0,0,0,0,0,0,0.18767,0,0,0
0.9408,0,0,0,0,0,0,0,0,0,0.83289,0,0,0,0.74838,0,0.80019,0,0,0,0,0,0,0,0,0,0,0,0.77863,0,0,0
0.87111,0,0,0,0,0,0,0,0,0,0.90446,0,0,0,0.88644,0,0.84452,0,0,0,0,0,0,0,0,0,0,0,0.75935,0,0,0
0.74916,0,0,0,0,0,0,0,0,0,0.97921,0,0,0,0.91482,0,0.71026,0,0,0,0,0,0,0,0,0,0,0,0.90409,0,0,0
0.47337,0,0,0,0,0,0,0,0,0,0.44675,0,0,0,0.55621,0,0.4142,0,0,0,0,0,0,0,0,0,0,0,0.31953,0,0,0
0.59887,0,0,0,0,0,0,0,0,0,0.6742,0,0,0,0.51412,0,0.81544,0,0,0,0,0,0,0,0,0,0,0,0.53861,0,0,0
0.84713,0,0,0,0,0,0,0,0,0,0.74947,0,0,0,0.78132,0,0.61996,0,0,0,0,0,0,0,0,0,0,0,0.72611,0,0,0
0.87772,0,0,0,0,0,0,0,0,0,0.82337,0,0,0,0.88043,0,0.83424,0,0,0,0,0,0,0,0,0,0,0,0.78533,0,0,0
0.74704,0,0,0,0,0,0,0,0,0,0.87945,0,0,0,0.63043,0,0.63636,0,0,0,0,0,0,0,0,0,0,0,0.37549,0,0,0
0.46785,0,0,0,0,0,0,0,0,0,0.63858,0,0,0,0.54545,0,0.52993,0,0,0,0,0,0,0,0,0,0,0,0.53659,0,0,0
0.88116,0,0,0,0,0,0,0,0,0,-0.20097,0,0,0,-0.65114,0,-0.78768,0,0,0,0,0,0,0,0,0,0,0,-0.30512,0,0,0
0.93147,0,0,0,0,0,0,0,0,0,-0.23237,0,0,0,-0.73329,0,-0.90995,0,0,0,0,0,0,0,0,0,0,0,-0.1359,0,0,0
0.88241,0,0,0,0,0,0,0,0,0,-0.62403,0,0,0,-0.81422,0,-1,0,0,0,0,0,0,0,0,0,0,0,0.25392,0,0,0
0.83479,0,0,0,0,0,0,0,0,0,-0.35558,0,0,0,-0.7035,0,-0.75821,0,0,0,0,0,0,0,0,0,0,0,0.25164,0,0,0
0.9287,0,0,0,0,0,0,0,0,0,-0.47202,0,0,0,-0.87474,0,-0.91814,0,0,0,0,0,0,0,0,0,0,0,0.36021,0,0,0
0.83367,0,0,0,0,0,0,0,0,0,-0.41729,0,0,0,-0.74725,0,-0.7218,0,0,0,0,0,0,0,0,0,0,0,0.431,0,0,0
0.98455,0,0,0,0,0,0,0,0,0,0.985,0,0,0,0.97396,0,0.97264,0,0,0,0,0,0,0,0,0,0,0,0.97132,0,0,0
0.94052,0,0,0,0,0,0,0,0,0,0.97173,0,0,0,0.95465,0,0.9523,0,0,0,0,0,0,0,0,0,0,0,0.91991,0,0,0
0.97032,0,0,0,0,0,0,0,0,0,0.93607,0,0,0,0.86758,0,0.97032,0,0,0,0,0,0,0,0,0,0,0,0.85388,0,0,0
0.52542,0,0,0,0,0,0,0,0,0,0.64407,0,0,0,0.54237,0,0.55932,0,0,0,0,0,0,0,0,0,0,0,0.83051,0,0,0
0.33333,0,0,0,0,0,0,0,0,0,0.54911,0,0,0,0.55556,0,0.25,0,0,0,0,0,0,0,0,0,0,0,0.36924,0,0,0
0.51207,0,0,0,0,0,0,0,0,0,0.21249,0,0,0,-0.33081,0,-0.61382,0,0,0,0,0,0,0,0,0,0,0,-1,0,0,0
0.75564,0,0,0,0,0,0,0,0,0,-0.09818,0,0,0,-0.52742,0,-0.68358,0,0,0,0,0,0,0,0,0,0,0,-0.34131,0,0,0
0.83789,0,0,0,0,0,0,0,0,0,-0.46177,0,0,0,-0.7847,0,-0.84014,0,0,0,0,0,0,0,0,0,0,0,0.37093,0,0,0
0.93658,0,0,0,0,0,0,0,0,0,-0.56535,0,0,0,-0.93104,0,-0.93641,0,0,0,0,0,0,0,0,0,0,0,0.54827,0,0,0
0.92436,0,0,0,0,0,0,0,0,0,-0.66616,0,0,0,-0.94315,0,-1,0,0,0,0,0,0,0,0,0,0,0,0.69886,0,0,0
1,0,0,0,0,0,0,0,0,0,1,0,0,0,1,0,1,0,0,0,0,0,0,0,0,0,0,0,1,0,0,0
0.95559,0,0,0,0,0,0,0,0,0,1,0,0,0,0.95853,0,0.84013,0,0,0,0,0,0,0,0,0,0,0,0.80634,0,0,0
0.79378,0,0,0,0,0,0,0,0,0,-0.42911,0,0,0,-0.75436,0,-0.69977,0,0,0,0,0,0,0,0,0,0,0,0.31008,0,0,0
0.88085,0,0,0,0,0,0,0,0,0,-0.62635,0,0,0,-0.85803,0,-0.81641,0,0,0,0,0,0,0,0,0,0,0,0.56626,0,0,0
0.89589,0,0,0,0,0,0,0,0,0,-0.7766,0,0,0,-0.92282,0,-0.76064,0,0,0,0,0,0,0,0,0,0,0,0.83142,0,0,0
1,0,0,0,0,0,0,0,0,0,0.92405,0,0,0,0.63291,0,0.87342,0,0,0,0,0,0,0,0,0,0,0,0.53165,0,0,0
0.7479,0,0,0,0,0,0,0,0,0,0.79093,0,0,0,0.64706,0,0.84034,0,0,0,0,0,0,0,0,0,0,0,0.58187,0,0,0
0.85013,0,0,0,0,0,0,0,0,0,0.91161,0,0,0,0.87339,0,0.95866,0,0,0,0,0,0,0,0,0,0,0,0.85198,0,0,0
1,0,0,0,0,0,0,0,0,0,1,0,0,0,0.99528,0,0.99314,0,0,0,0,0,0,0,0,0,0,0,0.99057,0,0,0
0.89505,0,0,0,0,0,0,0,0,0,0.94059,0,0,0,0.93663,0,0.94257,0,0,0,0,0,0,0,0,0,0,0,0.87327,0,0,0
0.90071,0,0,0,0,0,0,0,0,0,0.97872,0,0,0,1,0,0.89716,0,0,0,0,0,0,0,0,0,0,0,1,0,0,0
0.39394,0,0,0,0,0,0,0,0,0,0.57576,0,0,0,0.56156,0,0.51515,0,0,0,0,0,0,0,0,0,0,0,0.41856,0,0,0
0.86689,0,0,0,0,0,0,0,0,0,-0.51763,0,0,0,-0.77019,0,-0.69397,0,0,0,0,0,0,0,0,0,0,0,0.46189,0,0,0
0.89563,0,0,0,0,0,0,0,0,0,-0.67274,0,0,0,-0.8615,0,-0.73564,0,0,0,0,0,0,0,0,0,0,0,0.61217,0,0,0
0.90547,0,0,0,0,0,0,0,0,0,-0.79657,0,0,0,-0.93001,0,-0.71863,0,0,0,0,0,0,0,0,0,0,0,0.88654,0,0,0
1,0,0,0,0,0,0,0,0,0,-0.87192,0,0,0,-0.38916,0,-0.46552,0,0,0,0,0,0,0,0,0,0,0,0.3867,0,0,0
1,0,0,0,0,0,0,0,0,0,-0.57576,0,0,0,-0.33333,0,-0.09091,0,0,0,0,0,0,0,0,0,0,0,0.24242,0,0,0
0.8811,0,0,0,0,0,0,0,0,0,0.93902,0,0,0,1,0,0.94207,0,0,0,0,0,0,0,0,0,0,0,1,0,0,0
0.82624,0,0,0,0,0,0,0,0,0,0.94681,0,0,0,0.93262,0,0.95035,0,0,0,0,0,0,0,0,0,0,0,0.92553,0,0,0
0.74468,0,0,0,0,0,0,0,0,0,0.87657,0,0,0,0.95745,0,0.95035,0,0,0,0,0,0,0,0,0,0,0,0.8171,0,0,0
0.87578,0,0,0,0,0,0,0,0,0,0.87021,0,0,0,0.83851,0,0.85714,0,0,0,0,0,0,0,0,0,0,0,0.80757,0,0,0
0.97513,0,0,0,0,0,0,0,0,0,0.97158,0,0,0,0.97869,0,0.98579,0,0,0,0,0,0,0,0,0,0,0,0.99112,0,0,0
1,0,0,0,0,0,0,0,0,0,0.98343,0,0,0,0.97569,0,0.97901,0,0,0,0,0,0,0,0,0,0,0,0.98564,0,0,0
1,0,0,0,0,0,0,0,0,0,0.95973,0,0,0,0.98881,0,1,0,0,0,0,0,0,0,0,0,0,0,1,0,0,0
0.8842,0,0,0,0,0,0,0,0,0,-0.60316,0,0,0,-0.83285,0,-0.69318,0,0,0,0,0,0,0,0,0,0,0,0.54209,0,0,0
0.90147,0,0,0,0,0,0,0,0,0,-0.81857,0,0,0,-0.91456,0,-0.70163,0,0,0,0,0,0,0,0,0,0,0,0.87893,0,0,0
0.32789,0,0,0,0,0,0,0,0,0,-0.63714,0,0,0,-0.23227,0,-0.30522,0,0,0,0,0,0,0,0,0,0,0,0.21443,0,0,0
0.65845,0,0,0,0,0,0,0,0,0,-0.84211,0,0,0,-0.47032,0,-0.04759,0,0,0,0,0,0,0,0,0,0,0,0.20549,0,0,0
0.19466,0,0,0,0,0,0,0,0,0,-0.4542,0,0,0,-0.10305,0,0.18702,0,0,0,0,0,0,0,0,0,0,0,-0.16794,0,0,0
0.98002,0,0,0,0,0,0,0,0,0,0.97888,0,0,0,0.93929,0,0.93552,0,0,0,0,0,0,0,0,0,0,0,0.9819,0,0,0
0.82254,0,0,0,0,0,0,0,0,0,0.84624,0,0,0,0.74798,0,0.78324,0,0,0,0,0,0,0,0,0,0,0,0.70058,0,0,0
0.35346,0,0,0,0,0,0,0,0,0,0.62099,0,0,0,0.42271,0,0.58213,0,0,0,0,0,0,0,0,0,0,0,0.32232,0,0,0
0.76046,0,0,0,0,0,0,0,0,0,0.83096,0,0,0,0.82777,0,0.76531,0,0,0,0,0,0,0,0,0,0,0,0.66298,0,0,0
0.66667,0,0,0,0,0,0,0,0,0,0.40164,0,0,0,0.76776,0,0.78552,0,0,0,0,0,0,0,0,0,0,0,0.55328,0,0,0
0.83508,0,0,0,0,0,0,0,0,0,0.81197,0,0,0,1,0,0.96639,0,0,0,0,0,0,0,0,0,0,0,0.8666,0,0,0
0.95113,0,0,0,0,0,0,0,0,0,0.94171,0,0,0,0.97173,0,0.94834,0,0,0,0,0,0,0,0,0,0,0,0.94066,0,0,0
0.94701,0,0,0,0,0,0,0,0,0,0.92595,0,0,0,0.94837,0,0.93784,0,0,0,0,0,0,0,0,0,0,0,0.92459,0,0,0
0.90608,0,0,0,0,0,0,0,0,0,0.89061,0,0,0,0.91381,0,0.80773,0,0,0,0,0,0,0,0,0,0,0,0.96022,0,0,0
0.8471,0,0,0,0,0,0,0,0,0,0.80668,0,0,0,0.85764,0,0.8717,0,0,0,0,0,0,0,0,0,0,0,0.75747,0,0,0
