0.0793,0.6058,1.3079,0.6253,-0.6886,0.8611,-0.9446,-0.3303,0.2328,1.3079,-0.6579,-0.9446,-0.535,0.5707,-0.8422
0.2918,0.5855,-0.325,0.2918,0.189,-1.2407,0.6002,-0.1194,0.3432,1.1141,-0.8595,0.703,-0.5305,-0.8595,-1.3529
-0.9489,-0.9489,-0.9489,1.0454,-0.9489,0.6828,1.0454,-0.9489,1.0454,1.0454,1.0454,1.0454,-0.9489,1.0454,-0.4503
0.1908,0.6777,-1.0122,-0.4107,-0.0097,-0.1191,0.0905,0.0905,-0.9119,1.1933,-0.2503,0.5918,-1.2127,0.4715,0.8925
-1.2317,-0.1133,-1.2317,-0.9855,0.4485,-0.0097,0.3192,0.8362,-0.1608,-0.05,0.7476,0.5408,-0.1977,0.5703,-0.7147
-1.0975,0.9038,-0.7639,-1.0975,-1.0975,0.9038,0.9038,0.9038,0.9038,0.9038,-1.0975,-1.0975,-0.0968,-1.0975,0.4035
0.996,0.996,0.996,0.996,-0.996,-0.996,-0.996,-0.996,0.996,0.996,0.996,-0.996,0.996,-0.996,0.996
