% mean class accuracy (rules test set)	
 7.1875e+01	
 7.6667e+01	
 7.4194e+01	
 6.6667e+01	
 7.4194e+01	
 7.3333e+01	
 7.4194e+01	
 7.0000e+01	
 7.4194e+01	
 7.3333e+01	
 7.1875e+01	
 7.6667e+01	
 7.4194e+01	
 6.6667e+01	
 7.4194e+01	
 7.3333e+01	
 7.4194e+01	
 7.0000e+01	
 7.4194e+01	
 7.3333e+01	
 7.1875e+01	
 7.6667e+01	
 7.4194e+01	
 6.6667e+01	
 7.4194e+01	
