% mean class accuracy (pruned train set)	
 7.3723e+01	
 7.3551e+01	
 7.3455e+01	
 7.3551e+01	
 7.3455e+01	
 7.3551e+01	
 7.3455e+01	
 7.3551e+01	
 7.3455e+01	
 7.3551e+01	
 7.3723e+01	
 7.3551e+01	
 7.3455e+01	
 7.3551e+01	
 7.3455e+01	
 7.3551e+01	
 7.3455e+01	
 7.3551e+01	
 7.3455e+01	
 7.3551e+01	
 7.3723e+01	
 7.3551e+01	
 7.3455e+01	
 7.3551e+01	
 7.3455e+01	
 7.3551e+01	
 7.3455e+01	
 7.3551e+01	
 7.3455e+01	
 7.3551e+01	
