% pruning Log (total pruned neurons counts)	
 2.5000e+01	
 2.5000e+01	
 2.5000e+01	
 2.5000e+01	
 2.5000e+01	
 2.5000e+01	
 2.5000e+01	
 2.5000e+01	
 2.5000e+01	
 2.5000e+01	
 2.5000e+01	
 2.5000e+01	
 2.5000e+01	
 2.5000e+01	
 2.5000e+01	
 2.5000e+01	
 2.5000e+01	
 2.5000e+01	
 2.5000e+01	
 2.5000e+01	
 2.5000e+01	
 2.5000e+01	
 2.5000e+01	
 2.5000e+01	
 2.5000e+01	
 2.5000e+01	
 2.5000e+01	
 2.5000e+01	
 2.5000e+01	
 2.5000e+01	
