1,8,304,193,4732,19,9,-1
2,8,360,215,4615,14,10,-1
3,8,307,200,4376,15,10,-1
4,8,318,210,4382,14,11,-1
5,8,429,208,4633,11,11,-1
6,8,400,150,4997,14,11,-1
7,8,350,160,4456,14,12,-1
8,8,429,198,4952,12,12,-1
9,8,455,225,4951,11,12,-1
10,8,400,167,4906,13,12,-1
11,8,350,180,4499,13,12,-1
12,8,350,155,4502,14,13,-1
13,8,400,190,4422,13,13,-1
14,8,307,130,4098,14,13,-1
15,8,302,140,4294,16,13,-1
16,8,350,175,4100,13,13,-1
17,8,350,145,3988,13,13,-1
18,8,400,150,4464,12,13,-1
19,8,351,158,4363,13,13,-1
20,8,440,215,4735,11,13,-1
21,8,360,175,3821,11,13,-1
22,8,360,170,4654,13,13,-1
23,8,350,150,4699,15,13,-1
24,8,302,129,3169,12,13,-1
25,8,318,150,3940,13,13,-1
26,8,350,145,4055,12,13,-1
27,8,302,130,3870,15,13,-1
28,8,318,150,3755,14,13,-1
29,8,454,220,4354,9,14,-1
30,8,351,153,4129,13,14,-1
31,8,318,150,4077,14,14,-1
32,8,304,150,3672,12,14,-1
33,8,302,137,4042,15,14,-1
34,8,318,150,4237,15,14,-1
35,8,318,150,4457,14,14,-1
36,8,302,140,4638,16,14,-1
37,8,304,150,4257,16,14,-1
38,8,351,148,4657,14,14,-1
39,8,350,165,3693,12,15,-1
40,8,304,150,3892,13,15,-1
41,8,318,150,3777,13,15,-1
42,8,350,145,4082,13,15,-1
43,6,250,72,3432,21,15,-1
44,6,250,72,3158,20,15,-1
45,8,350,145,4440,14,15,-1
46,6,258,110,3730,19,15,-1
47,8,351,152,4215,13,15,-1
48,8,302,130,4295,15,15,-1
49,6,250,100,3278,18,16,-1
50,8,400,230,4278,10,16,-1
51,6,250,100,3781,17,16,-1
52,6,258,110,3632,18,16,-1
53,8,302,140,4141,14,16,-1
54,8,400,170,4668,12,16,-1
55,8,318,150,4498,15,16,-1
56,6,250,105,3897,19,16,-1
57,8,318,150,4190,13,16,-1
58,8,304,120,3962,14,16,-1
59,8,318,145,4140,14,16,-1
60,8,400,180,4220,11,16,-1
61,8,350,170,4165,11,16,-1
62,8,400,190,4325,12,16,-1
63,8,351,149,4335,15,16,-1
64,8,351,142,4054,14,16,-1
65,8,304,150,3672,12,17,-1
66,6,231,110,3907,21,17,-1
67,6,168,120,3820,17,17,-1
68,8,350,180,4380,12,17,-1
69,8,260,110,4060,19,17,-1
70,8,305,130,3840,15,17,-1
71,8,351,138,3955,13,17,-1
72,8,350,155,4360,15,17,-1
73,8,307,130,3504,12,18,-1
74,6,199,97,2774,16,18,-1
75,6,250,88,3139,15,18,-1
76,4,121,112,2933,15,18,-1
77,6,225,105,3121,17,18,-1
78,6,232,100,2945,16,18,-1
79,6,250,88,3021,17,18,-1
80,6,232,100,2789,15,18,-1
81,3,70,90,2124,14,18,-1
82,6,225,105,3613,17,18,-1
83,6,250,105,3459,16,18,-1
84,6,225,95,3785,19,18,-1
85,6,171,97,2984,15,18,-1
86,8,305,140,4215,13,18,-1
87,6,250,78,3574,21,18,-1
88,6,258,95,3193,18,18,-1
89,8,305,145,3880,13,18,-1
90,6,250,110,3520,16,18,-1
91,6,258,120,3410,15,18,-1
92,6,231,165,3445,13,18,-1
93,8,302,139,3205,11,18,-1
94,8,318,140,4080,14,18,-1
95,8,302,129,3725,13,18,-1
96,8,318,135,3830,15,18,-1
97,3,70,97,2330,14,19,-1
98,4,122,85,2310,19,19,-1
99,6,225,95,3264,16,19,-1
100,6,232,90,3211,17,19,-1
101,6,250,110,3645,16,19,-1
102,4,120,88,3270,22,19,-1
103,6,156,108,2930,16,19,-1
104,6,225,100,3630,18,19,-1
105,6,250,98,3525,19,19,-1
106,8,318,140,3735,13,19,-1
107,6,231,105,3535,19,19,-1
108,6,232,90,3210,17,19,-1
109,6,225,110,3620,19,19,-1
110,8,305,145,3425,13,19,-1
111,8,267,125,3605,15,19,-1
112,8,360,150,3940,13,19,-1
113,4,97,88,2279,19,20,-1
114,8,262,110,3221,14,20,-1
115,6,232,100,2914,16,20,-1
116,6,225,100,3651,18,20,-1
117,4,130,102,3150,16,20,-1
118,8,260,110,3365,16,20,-1
119,8,302,139,3570,13,20,-1
120,6,200,85,2965,16,20,-1
121,6,200,85,2990,18,20,-1
122,6,232,90,3265,18,20,-1
123,6,199,90,2648,15,21,-1
124,4,120,87,2979,20,21,-1
125,4,140,72,2401,20,21,-1
126,6,155,107,2472,14,21,-1
127,6,231,110,3039,15,21,-1
128,6,231,105,3425,17,21,-1
129,6,200,95,3155,18,21,-1
130,6,225,100,3430,17,21,-1
131,6,231,105,3380,16,21,-1
132,6,200,85,3070,17,21,-1
133,6,225,110,3360,17,21,-1
134,4,121,76,2511,18,22,1
135,4,122,86,2395,16,22,1
136,4,108,94,2379,17,22,1
137,4,121,98,2945,15,22,1
138,6,225,100,3233,15,22,1
139,6,250,105,3353,15,22,1
140,6,146,97,2815,15,22,1
141,4,121,110,2600,13,22,1
142,3,80,110,2720,14,22,1
143,4,140,88,2890,17,22,1
144,6,232,112,2835,15,22,1
145,4,122,86,2220,14,23,1
146,4,97,54,2254,24,23,1
147,4,120,97,2506,15,23,1
148,6,198,95,2904,16,23,1
149,4,140,83,2639,17,23,1
150,4,140,78,2592,19,23,1
151,4,115,95,2694,15,23,1
152,4,120,88,2957,17,23,1
153,6,232,90,3085,18,23,1
154,8,350,125,3900,17,23,1
155,4,107,90,2430,15,24,1
156,4,113,95,2278,16,24,1
157,4,116,75,2158,16,24,1
158,4,90,75,2108,16,24,1
159,4,120,97,2489,15,24,1
160,4,134,96,2702,14,24,1
161,4,119,97,2545,17,24,1
162,6,200,81,3012,18,24,1
163,8,260,90,3420,22,24,1
164,4,140,92,2865,16,24,1
165,4,110,87,2672,18,25,1
166,4,104,95,2375,18,25,1
167,4,97.5,80,2126,17,25,1
168,4,140,75,2542,17,25,1
169,4,90,71,2223,17,25,1
170,4,121,115,2671,14,25,1
171,4,116,81,2220,17,25,1
172,4,140,92,2572,15,25,1
173,4,98,60,2164,22,25,1
174,4,151,88,2740,16,25,1
175,4,140,88,2720,15,25,1
176,5,183,77,3530,20,25,1
177,6,181,110,2945,16,25,1
178,4,97,46,1835,21,26,1
179,4,121,113,2234,13,26,1
180,4,91,70,1955,21,26,1
181,4,96,69,2189,18,26,1
182,4,97,46,1950,21,26,1
183,4,98,90,2265,16,26,1
184,4,79,67,1963,16,26,1
185,4,97,78,2300,15,26,1
186,4,116,75,2246,14,26,1
187,4,108,93,2391,16,26,1
188,4,98,79,2255,18,26,1
189,4,122,96,2300,16,26,1
190,4,97,75,2265,18,26,1
191,4,140,89,2755,16,26,1
192,4,156,92,2585,15,26,1
193,4,97,88,2130,15,27,1
194,4,97,88,2130,15,27,1
195,4,97,60,1834,19,27,1
196,4,97,88,2100,17,27,1
197,4,101,83,2202,15,27,1
198,4,140,72,2565,14,27,1
199,4,121,80,2670,15,27,1
200,4,141,71,3190,25,27,1
201,6,173,115,2700,13,27,1
202,4,151,90,2950,17,27,1
203,4,116,90,2123,14,28,1
204,4,97,92,2288,17,28,1
205,4,98,80,2164,15,28,1
206,4,90,75,2125,15,28,1
207,4,107,86,2464,16,28,1
208,4,97,75,2155,16,28,1
209,4,151,90,2670,16,28,1
210,4,156,105,2800,14,28,1
211,4,68,49,1867,20,29,1
212,4,98,83,2219,17,29,1
213,4,97,75,2171,16,29,1
214,4,90,70,1937,14,29,1
215,4,85,52,2035,22,29,1
216,4,90,70,1937,14,29,1
217,4,97,78,1940,15,29,1
218,6,173,115,2595,11,29,1
219,4,79,70,2074,20,30,1
220,4,88,76,2065,15,30,1
221,4,97,71,1825,12,30,1
222,4,111,80,2155,15,30,1
223,4,97,67,1985,16,30,1
224,4,146,67,3250,22,30,1
225,4,135,84,2385,13,30,1
226,4,98,65,2380,21,30,1
227,4,71,65,1773,19,31,1
228,4,76,52,1649,17,31,1
229,4,79,67,2000,16,31,1
230,4,98,63,2051,17,31,1
231,4,97,78,2190,14,31,1
232,4,83,61,2003,19,32,1
233,4,85,70,1990,17,32,1
234,4,98,68,2045,19,32,1
235,4,89,71,1925,14,32,1
236,4,85,65,2020,19,32,1
237,4,97,67,2065,18,32,1
238,4,91,67,1965,16,32,1
239,4,144,96,2665,14,32,1
240,4,91,53,1795,18,33,1
241,4,91,53,1795,17,33,1
242,4,78,52,1985,19,33,1
243,4,105,74,2190,14,33,1
244,4,85,70,1945,17,34,1
245,4,98,83,2075,16,34,1
246,4,86,65,1975,15,34,1
247,4,105,70,2200,13,34,1
248,4,151,90,2556,13,34,1
249,4,91,68,1985,16,34,1
250,4,98,65,2045,16,34,1
251,4,72,69,1613,18,35,1
252,4,105,70,2150,15,35,1
253,4,81,60,1760,16,35,1
254,4,105,63,2215,15,35,1
255,4,79,58,1825,19,36,1
256,4,98,66,1800,14,36,1
257,4,91,60,1800,16,36,1
258,4,98,80,1915,14,36,1
259,5,121,67,2950,20,36,1
260,4,135,84,2370,13,36,1
261,4,91,69,2130,15,37,1
262,4,85,65,1975,19,37,1
263,4,89,60,1968,19,38,1
264,4,89,62,2050,17,38,1
265,4,91,67,1995,16,38,1
266,6,262,85,3015,17,38,1
267,4,85,70,2070,19,39,1
268,4,79,58,1755,17,39,1
269,4,86,64,1875,16,39,1
270,4,85,65,2110,19,41,1
271,4,98,76,2144,15,42,1
272,4,90,48,1985,22,43,1
273,4,90,48,2335,24,43,1
274,4,90,48,2085,22,44,1
275,4,86,65,2110,18,47,1
